Frederick Anyan, Ph.D. - Importing and working with data in R
…
$ Sivilstand     <dbl> 1, NA, 1, 1, 0, 1, 1, 0, 1, 1, 1, 1, 0, 1, NA, 1, 1, 0,…
$ trist          <dbl> 1, 5, 4, 5, 4, 2, 3, 4, 3, NA, 4, 2, 3, 5, 5, 3, 1, 1, …
$ fiendtlig      <dbl> 4, 5, 5, 3, 4, 2, 4, 3, 1, 2, 5, 2, 2, 4, NA, 5, 2, 2, …
$ rsa1           <dbl> 3, 1, 4, 1, 3, 3, 5, 3, 5, 4, 2, 4, 4, 2, 1, 5, 1, 3, 1…
$ rsa2           <dbl> 1, 1, 3, 1, 2, 4, 3, 3, 4, 4, 1, 4, 5, 1, 1, 5, 3, 3, 1…
$ rsa3           <dbl> 5, 1, 2, 1, 2, 4, 3, 2, 3, 3, 2, 4, 3, 1, 1, 3, 5, 5, 1…
$ rsa4           <dbl> 3, 1, 4, 1, 1, 1, 5, 3, 3, 3, 1, 4, NA, 3, 1, 1, 5, 1, …
$ rsa5           <dbl> 2, 1, 2, 2, 2, 3, 4, 2, 3, 2, 3, 4, 5, 5, 1, 2, 4, 5, N…
$ rsa6           <dbl> 2, 1, 3, 1, 1, 1, 4, 3, 4, 2, 2, 1, 5, 4, 1, 4, 3, 4, 1…
$ rsa7           <dbl> 2, 1, 1, 3, 2, 4, 2, 3, 5, 4, 1, 4, 4, 2, 1, 1, 4, 4, 1…
$ rsa8           <dbl> 3, 1, 4, 2, 1, 2, 5, 2, 2, 2, 3, 4, 3, 3, 2, 3, 5, 5, 1…
$ rsa9           <dbl> 3, 3, 2, 4, 1, 2, 4, 1, 2, 3, 2, 5, 4, 4, 1, 3, 5, 5, 1…
$ rsa10          <dbl> 3, 1, 4, 2, 1, 3, 5, 2, 4, 2, 3, 5, 3, 5, 1, 5, 4, 3, 1…

# A tibble: 100 × 3
      id Kjønn Beskjeftigelse
   <dbl> <dbl>          <dbl>
 1     1     0              1
 2     2     0              2
 3     3     1              1
 4     4     1              1
 5     5     1              2
 6     6     1              1
 7     7     0              1
 8     8     0              1
 9     9     0              1
10    10     1              0
# ℹ 90 more rows
…
Renaming columns (or variables): rename()`

Code
data_sel_col03 %>% 
  rename(# "newname" = "oldname",
    "sadnew" = "sad", 
    "rsa1" = "rsaone", 
    "rsa2" = "rsatwo", 
    "rsa3" = "rsathree", 
    "rsa4" = "rsafour")

# A tibble: 100 × 5
   sadnew  rsa1  rsa2  rsa3  rsa4
    <dbl> <dbl> <dbl> <dbl> <dbl>
 1      1     3     1     5     3
 2      5     1     1     1     1
 3      4     4     3     2     4
 4      5     1     1     1     1
 5      4     3     2     2     1
 6      2     3     4     4     1
 7      3     5     3     3     5
 8      4     3     3     2     3
 9      3     5     4     3     3
10     NA     4     4     3     3
# ℹ 90 more rows
…
